[
    {
        "id": 1,
        "title": "Do home work",
        "description": "Do home work for all subjects",
        "complete": true,
        "createdById": 2
    },
    {
        "id": 2,
        "title": "Make a call",
        "description": "Call my aunt",
        "complete": false,
        "createdById": 3
    },
    {
        "id": 3,
        "title": "Make excerise",
        "description": "Go to sport club",
        "complete": true,
        "createdById": 2
    },
    {
        "id": 4,
        "title": "Do home work",
        "description": "Do home work for all subjects",
        "complete": false,
        "createdById": 3
    },
    {
        "id": 5,
        "title": "Make a call",
        "description": "Call my aunt",
        "complete": true,
        "createdById": 3
    },
    {
        "id": 6,
        "title": "Make excerise",
        "description": "Go to sport club",
        "complete": false,
        "createdById": 2
    }
]