[
    {
        "id": 1,
        "name": "VIEWER",
        "userName": "viewer",
        "password": "123456",
        "privlage": {
            "CanEdit": false,
            "CanCreate": false,
            "CanDelete": false,
            "CanEditAll": false,
            "CanDeleteAll": false
        }
    },
    {
        "id": 2,
        "name": "CONTRIBUTOR",
        "userName": "contributor",
        "password": "123456",
        "privlage": {
            "CanEdit": true,
            "CanCreate": true,
            "CanDelete": true,
            "CanEditAll": false,
            "CanDeleteAll": false
        }
    },
    {
        "id": 3,
        "name": "ADMIN",
        "userName": "admin",
        "password": "123456",
        "privlage": {
            "CanEdit": true,
            "CanCreate": true,
            "CanDelete": true,
            "CanEditAll": true,
            "CanDeleteAll": true
        }
    }
]